%YAML 1.1
%TAG !u! tag:unity3d.com,2011:
--- !u!114 &11400000
MonoBehaviour:
  m_ObjectHideFlags: 0
  m_CorrespondingSourceObject: {fileID: 0}
  m_PrefabInstance: {fileID: 0}
  m_PrefabAsset: {fileID: 0}
  m_GameObject: {fileID: 0}
  m_Enabled: 1
  m_EditorHideFlags: 0
  m_Script: {fileID: 11500000, guid: d59fb79d9fa442e4581144753d5e76d2, type: 3}
  m_Name: ItemMemo
  m_EditorClassIdentifier: 
  ItemType: 2
  Name: "\u5C0F\u9CE5\u306E\u6697\u53F7\u30E1\u30E2"
  Comment: "\u753B\u50CF\u306F\u30C0\u30DF\u30FC "
  Image:
  - {fileID: 21300000, guid: 4b8ce6fe21b428e48a0516c0fa7251d1, type: 3}
