%YAML 1.1
%TAG !u! tag:unity3d.com,2011:
--- !u!114 &11400000
MonoBehaviour:
  m_ObjectHideFlags: 0
  m_CorrespondingSourceObject: {fileID: 0}
  m_PrefabInstance: {fileID: 0}
  m_PrefabAsset: {fileID: 0}
  m_GameObject: {fileID: 0}
  m_Enabled: 1
  m_EditorHideFlags: 0
  m_Script: {fileID: 11500000, guid: 3d253a15afcd9194cbf9d293196946d0, type: 3}
  m_Name: MsgOpening
  m_EditorClassIdentifier: 
  Type: 0
  Messages:
    Messages:
    - "\u3053\u3053\u306F\u304A\u83D3\u5B50\u306E\u9B54\u5973\u306E\u5BB6\u3060\u3002"
    - "\u50D5\u306F\u59B9\u306E\u30B0\u30EC\u30FC\u30C6\u30EB\u3068\u4E00\u7DD2\u306B\u9B54\u5973\u306B\u6355\u307E\u308A\u3001\u30B0\u30EC\u30FC\u30C6\u30EB\u306F\u9B54\u5973\u306E\u624B\u4F1D\u3044\u3092\u3001\u50D5\u306F\u3053\u306E\u5009\u5EAB\u306B\u9589\u3058\u8FBC\u3081\u3089\u308C\u3066\u592A\u3089\u3055\u308C\u3088\u3046\u3068\u3057\u3066\u3044\u308B\u3002 "
    - "\u65E9\u304F\u8131\u51FA\u3057\u306A\u3051\u308C\u3070\u3042\u306E\u4EBA\u55B0\u3044\u9B54\u5973\u306B\u98DF\u3079\u3089\u308C\u3066\u3057\u307E\u3046\u3060\u308D\u3046\u3002"
    - "\u4F55\u3068\u304B\u8131\u51FA\u3057\u306A\u3051\u308C\u3070\u3002"
    - "\u90E8\u5C4B\u306E\u4E2D\u306B\u4F55\u304B\u4F7F\u3048\u308B\u3082\u306E\u304C\u306A\u3044\u304B\u63A2\u305D\u3046\u3002"
